-------------------------------------------------------------------------------
Test set: com.linos.core.TestRunner
-------------------------------------------------------------------------------
Tests run: 2, Failures: 0, Errors: 0, Skipped: 0, Time elapsed: 0.408 sec
